Lab 0 – 500-2026
…
[1] 135   7

A Hint for Task 1

Partial R code you might use to do this work follows…

m1 <- glm((treatment=="Treated") ~ cov1 + cov2 + cov3 + cov4 + cov5,
          family=binomial(), data=lab0)

lab0$linpred <- m1$linear.predictors
lab0$prob <- m1$fitted.values

lab0 # note new columns

# A tibble: 135 × 9
   subject treatment  cov1  cov2  cov3  cov4  cov5 linpred  prob
   <chr>   <fct>     <dbl> <dbl> <dbl> <dbl> <dbl>   <dbl> <dbl>
 1 101     Treated    38.4  53.7    13    19     0  -0.602 0.354
 2 102     Treated    39.1  48.5    15    21     0  -0.676 0.337
 3 103     Treated    67.3  53.9    11    16     0   0.759 0.681
 4 104     Treated    61.5  52.2    18    21     1   0.404 0.600
 5 105     Treated    66.4  55.6    19    22     0  -0.392 0.403
 6 106     Treated    57.1  44.4    24    33     0  -0.658 0.341
 7 107     Treated    50.3  66.8    15    16     1  -0.224 0.444
 8 108     Treated    61.7  68.9    15    26     0   0.104 0.526
 9 109     Treated    44.7  54.2    19    18     1  -0.742 0.322
10 110     Treated    56.9  36.8    16    24     1   1.18  0.765
# ℹ 125 more rows
…
